단어간 관계 파악
…
In [108]:

wide_cors <- word_cmt %>%
    filter(!word %in% stopwords) %>%
    add_count(word) %>%
    filter(n >= 100) %>%
    pairwise_cor(item = word,
                 feature = textOriginal,
                 sort = T)

In [109]:

wide_cors %>% print

# A tibble: 59,780 x 3
   item1  item2  correlation
   <chr>  <chr>        <dbl>
 1 서형욱 해설         0.326
 2 해설   서형욱       0.326
 3 홍철   이용         0.310
 4 이용   홍철         0.310
 5 정몽규 보내다       0.280
 6 보내다 정몽규       0.280
 7 이동국 해설         0.275
 8 해설   이동국       0.275
 9 김승규 조현우       0.270
10 조현우 김승규       0.270
# ... with 59,770 more rows
…
In [139]:

bigram_comment <- line_comment %>% 
    unnest_tokens(input = sentence,
                  output = bigram,
                  token = "ngrams",
                  n = 2)

In [140]:

bigram_comment %>% 
    select(bigram) %>% print

# A tibble: 154,244 x 1
   bigram             
   <chr>              
 1 선제골 넣다        
 2 넣다 까다로운팀은  
 3 까다로운팀은 아니다
 4 아니다 전방압박    
 5 전방압박 패싱      
 6 패싱 플레이        
 7 플레이 안되다보니  
 8 안되다보니 힘들다  
 9 힘들다 포트        
10 포트 늘다          
# ... with 154,234 more rows
 ¶

바이그램 분리

In [141]:

bigram_separated <- bigram_comment %>%
    separate(bigram, c("word1", "word2"), sep = " ")

In [142]:

bigram_separated %>% 
    select(-textOriginal) %>% print

# A tibble: 154,244 x 2
   word1        word2       
   <chr>        <chr>       
 1 선제골       넣다        
 2 넣다         까다로운팀은
 3 까다로운팀은 아니다      
 4 아니다       전방압박    
 5 전방압박     패싱        
 6 패싱         플레이      
 7 플레이       안되다보니  
 8 안되다보니   힘들다      
 9 힘들다       포트        
10 포트         늘다        
# ... with 154,234 more rows
 ¶

단어상 빈도

In [143]:

pair_bigram <- bigram_separated %>%
    count(word1, word2, sort = T) %>%
    na.omit()

In [144]:

pair_bigram %>% print

# A tibble: 122,600 x 3
   word1    word2      n
   <chr>    <chr>  <int>
 1 월드컵   본선     122
 2 한국     축구     110
 3 손흥민   황희찬    94
 4 대한민국 축구      72
 5 월드컵   진출      71
 6 경기력   좋다      67
 7 황희찬   잘하다    65
 8 어제     경기      62
 9 모습     보이다    60
10 손흥민   황의조    59
# ... with 122,590 more rows
…
